digraph {

    EntryPoint [
        shape = "doublecircle"
        fillcolor = "RoyalBlue"
        fontcolor = "White"
        style = "filled"
    ]

    Gi, DailogArgs [
        shape = "box"
        fillcolor = "Orange"
        style = "filled"
    ]

    WindowAttributes, Resources, Config, RecentFiles, Css, Directory [
        fillcolor = "LightGray"
        style = "filled"
    ]

    EntryPoint -> HumanoidInterface

    HumanoidInterface -> Args
    HumanoidInterface -> Application

    Application -> MainWindow
    Application -> Resources
    Application -> Config
    Application -> RecentFiles
    Application -> Css
    
    Config -> Directory
    
    MainWindow -> WindowAttributes
    MainWindow -> EventBox_ForGrid

    EventBox_ForGrid -> ContextMenu_ForGrid
    EventBox_ForGrid -> Grid

    Grid -> EventBox_ForLabel

    EventBox_ForLabel -> ContextMenu_ForLabel
    EventBox_ForLabel -> DummyLabel

}